[2020-04-02 07:42:19] app.CRITICAL: Page Not Found [] {"uid":"9e860f1"}
[2020-04-02 09:35:21] app.CRITICAL: Class 'ResponseCodes' not found [] {"uid":"6b98ca3"}
[2020-04-02 09:36:23] app.CRITICAL: Class 'ResponseCodes' not found [] {"uid":"5bf266c"}
[2020-04-06 05:51:21] app.CRITICAL: Identifier "email" is not defined. [] {"uid":"af17c04"}
[2020-04-06 05:53:50] app.CRITICAL: Identifier "email" is not defined. [] {"uid":"ecdc20a"}
[2020-04-06 05:58:10] app.CRITICAL: Page Not Found [] {"uid":"0cde5b3"}
[2020-04-06 06:05:30] app.CRITICAL: Page Not Found [] {"uid":"3a243b4"}
[2020-04-08 02:23:38] app.CRITICAL: Method must be one of: POST [] {"uid":"45e6fb6"}
[2020-04-08 02:36:42] app.CRITICAL: Cannot access parent:: when current class scope has no parent [] {"uid":"e3d1ee8"}
[2020-04-08 02:39:35] app.CRITICAL: syntax error, unexpected 'return' (T_RETURN), expecting function (T_FUNCTION) or const (T_CONST) [] {"uid":"c42bbfa"}
[2020-06-29 15:23:14] app.CRITICAL: Page Not Found [] {"uid":"e134377"}
[2020-07-01 04:52:49] app.CRITICAL: Method must be one of: POST [] {"uid":"816f3f1"}
[2020-07-01 04:53:14] app.CRITICAL: Method must be one of: POST [] {"uid":"1a8c1ec"}
[2020-07-01 04:53:28] app.CRITICAL: Class 'Module\Controllers\Api' not found [] {"uid":"80ce03c"}
[2020-07-01 04:58:38] app.CRITICAL: Too few arguments to function Module\Services\Api::__construct(), 0 passed in C:\xampp\htdocs\personal\module\Helpers\MedooHelper.php on line 14 and exactly 1 expected [] {"uid":"9357226"}
[2020-07-01 04:59:13] app.CRITICAL: Too few arguments to function Module\Services\Api::__construct(), 0 passed in C:\xampp\htdocs\personal\module\Helpers\MedooHelper.php on line 14 and exactly 1 expected [] {"uid":"1ceadbf"}
[2020-07-01 05:03:47] app.CRITICAL: Class 'Api' not found [] {"uid":"56a0cd2"}
[2020-07-01 05:05:23] app.CRITICAL: Class 'Api' not found [] {"uid":"985ab45"}
[2020-07-01 05:06:01] app.CRITICAL: Class 'Api' not found [] {"uid":"2041a4b"}
[2020-07-01 05:06:51] app.CRITICAL: Class 'Api' not found [] {"uid":"7694632"}
[2020-07-01 05:44:25] app.CRITICAL: [{},"Balannce"] is not resolvable [] {"uid":"de3ce67"}
[2020-07-01 05:46:30] app.CRITICAL: Page Not Found [] {"uid":"fa60f0f"}
[2020-07-01 06:15:30] app.CRITICAL: Page Not Found [] {"uid":"b32e3b0"}
[2020-07-01 06:20:16] app.CRITICAL: Page Not Found [] {"uid":"9c70dc6"}
[2020-07-01 15:34:45] app.CRITICAL: Page Not Found [] {"uid":"f7e4100"}
[2020-07-01 15:40:21] app.CRITICAL: Call to a member function getQueryParams() on null [] {"uid":"f637bc6"}
[2020-07-01 15:40:42] app.CRITICAL: Call to undefined method Module\Models\TestModel::getPax() [] {"uid":"5247f51"}
[2020-07-01 15:53:05] app.CRITICAL: Class 'SoapClient' not found [] {"uid":"c0963de"}
[2020-07-02 06:17:24] app.CRITICAL: Class 'SoapClient' not found [] {"uid":"3169c81"}
[2020-07-02 06:18:50] app.CRITICAL: Class 'SoapClient' not found [] {"uid":"aec2fa8"}
[2020-07-02 06:18:55] app.CRITICAL: Class 'SoapClient' not found [] {"uid":"52a746f"}
[2020-07-02 06:19:03] app.CRITICAL: Class 'SoapClient' not found [] {"uid":"08b9c7a"}
[2020-07-02 06:24:29] app.CRITICAL: Class 'SoapClient' not found [] {"uid":"75a6c50"}
[2020-07-02 06:25:45] app.CRITICAL: Class 'Module\Services\SoapClient' not found [] {"uid":"82b7a4c"}
[2020-07-02 06:28:51] app.CRITICAL: Class 'SoapClient' not found [] {"uid":"b839bfa"}
[2020-07-05 09:11:39] app.CRITICAL: Page Not Found [] {"uid":"11ec361"}
[2020-07-05 13:33:40] app.CRITICAL: syntax error, unexpected '$this' (T_VARIABLE) [] {"uid":"fcde86f"}
[2020-07-05 13:40:16] app.CRITICAL: syntax error, unexpected ';', expecting ')' [] {"uid":"37f0e51"}
[2020-07-05 13:46:28] app.CRITICAL: Call to a member function get() on null [] {"uid":"92a5c70"}
[2020-07-05 14:31:07] app.CRITICAL: Page Not Found [] {"uid":"f22960a"}
[2020-07-05 15:09:34] app.CRITICAL: Page Not Found [] {"uid":"5087a83"}
[2020-07-05 15:09:38] app.CRITICAL: Page Not Found [] {"uid":"dde9637"}
[2020-07-05 15:09:39] app.CRITICAL: Page Not Found [] {"uid":"f037d41"}
[2020-07-05 15:09:41] app.CRITICAL: Page Not Found [] {"uid":"2d2bfd2"}
[2020-07-05 15:09:45] app.CRITICAL: Page Not Found [] {"uid":"c6df461"}
[2020-07-05 15:10:47] app.CRITICAL: Method must be one of: POST [] {"uid":"aefc7fc"}
[2020-07-05 15:10:48] app.CRITICAL: Method must be one of: POST [] {"uid":"91a9af3"}
[2020-07-05 15:10:53] app.CRITICAL: Argument 1 passed to GUMP::validate() must be of the type array, null given, called in C:\xampp\htdocs\PublicSlimProjectSkeleton\module\Controllers\TestController.php on line 129 [] {"uid":"24e8de1"}
[2020-07-05 15:11:54] app.CRITICAL: Validator method 'validate_optional' does not exist. [] {"uid":"095762d"}
[2020-07-05 15:12:24] app.CRITICAL: Call to undefined method Module\Models\TestModel::test_update() [] {"uid":"9242779"}
[2020-07-05 15:24:48] app.CRITICAL: Page Not Found [] {"uid":"91a6da8"}
[2020-07-05 15:27:04] app.CRITICAL: Page Not Found [] {"uid":"60af08e"}
[2020-07-05 15:28:06] app.CRITICAL: Method must be one of: GET [] {"uid":"0cdf8e0"}
[2020-07-05 15:31:32] app.CRITICAL: Could not read key resource: error:0607A082:digital envelope routines:EVP_CIPHER_CTX_set_key_length:invalid key length [] {"uid":"189d2be"}
[2020-07-05 15:56:03] app.CRITICAL: Page Not Found [] {"uid":"48e78a1"}
[2020-07-05 15:56:09] app.CRITICAL: Page Not Found [] {"uid":"fa77050"}
[2020-07-05 16:00:09] app.CRITICAL: Page Not Found [] {"uid":"f5562b7"}
